{
  "type": "object",
  "properties": {
    "trustedMTBKeys": {
      "title": "Trusted MTB keys",
      "description": "Trusted public MTB signing keys in JWK format",
      "type": "array",
      "items": [
        {
          "type": "object",
          "properties": {
            "kty": {
              "title": "JWA key type",
              "description": "RFC7518 section-6.1",
              "type": "string",
              "enum": [
                "EC",
                "RSA"
              ]
            },
            "kid": {
              "title": "JWK key identifier",
              "description": "Key identifier selected by key holder",
              "type": "string"
            },
            "crv": {
              "title": "Curve",
              "description": "Parameter for Elliptic Curve Public Keys",
              "type": "string"
            },
            "x": {
              "title": "X Coordinate",
              "description": "Parameter for Elliptic Curve Public Keys",
              "type": "string"
            },
            "y": {
            "title": "Y Coordinate",
              "description": "Parameter for Elliptic Curve Public Keys",
              "type": "string"
            },
            "n": {
            "title": "Modulus",
              "description": "Parameter for RSA Public Keys",
              "type": "string"
            },
            "e": {
            "title": "Exponent",
              "description": "Parameter for RSA Public Keys",
              "type": "string"
            }
          }
        }
      ]
    },
    "trustedKDKs": {
      "type": "array",
      "title": "Trusted KDKs",
      "description": "Trusted Key-Derivation-Keys for device signatures in JWK format",
      "items": [
        {  
          "type": "object",
          "properties": {
            "alg": {
              "title": "JWA key type",
              "description": "RFC7518 section-6.1",
              "type": "string",
              "enum": [
                "oct"
              ]
            },
            "kid": {
              "title": "Key identifier",
              "description": "Key identifier selected by key holder",
              "type": "string"
            },
            "k": {
              "title": "Key value",
              "description": "Base64url encoded octet sequence containing the key value",
              "type": "string"
            }
          }
        }
      ]
    },
    "macroDefinitions": {
      "title": "Tickle macro definitions",
      "type": "array",
      "items": [
        {  
          "type": "object",
          "properties": {
            "macroName": {
              "title": "Tag",
              "description": "Name tag of macro definition",
              "type": "string",
              "pattern": "^#.*$"
            },
            "macroDefinition": {
              "title": "Definition",
              "description": "Contents of macro definition",
              "type": "string"
            }
          }
        }
      ]
    },
    "ticketBlacklist": {
      "title": "Ticket blacklist",
      "description": "List of blacklisted ticket IDs",
      "type": "array",
      "items": {
        "title": "Ticket ID",
        "type": "string"
      }
    }
  }
}
