{
  "type": "object",
  "properties": {
    "c_vn": {
      "title": "Coordinated ticket name space serial number",
      "type": "number"
    },
    "c_vm": {
      "title": "Macro definitions serial number",
      "type": "number"
    },
    "c_vt": {
      "title": "TICKLE language version number",
      "type": "number"
    },
    "c_md": {
      "title": "Ticket Metadata",
      "type": "array",
      "uniqueItems": true,
      "items": {
        "title": "Metadata field",
        "oneOf": [
          { "$ref": "#/definitions/prefLang" },
          { "$ref": "#/definitions/productIdentifiers" },
          { "$ref": "#/definitions/travellerId" },
          { "$ref": "#/definitions/ticketId" },
          { "$ref": "#/definitions/timeOfIssue" },
          { "$ref": "#/definitions/travellersPerCategory" },
          { "$ref": "#/definitions/relativeValidity" },
          { "$ref": "#/definitions/renderedFare" }
        ]
      }
    },
    "c_tc": {
      "title": "TICKLE Concrete Syntax Entitlement",
      "type": "string"
    }
  },
  "definitions": {
    "prefLang": {
      "title": "Preferred interface language",
      "description": "RFC 5646 language tag",
      "type": "object",
      "additionalProperties": false,
      "properties": {
        "pln": {
          "type": "string"
        }
      }
    },
    "productIdentifiers": {
      "title": "Product identifiers",
      "type": "object",
      "additionalProperties": false,
      "properties": {
        "pds": {
          "type": "array",
          "items": {
            "title": "Product identifier",
            "type": "string"
          }
        }
      }
    },
    "relativeValidity": {
      "title": "Relative validity",
      "description": "Time in ISO 8601:2004 format",
      "type": "object",
      "additionalProperties": false,
      "properties": {
        "rvl": {
          "type": "string"
        }
      }
    },
    "renderedFare": {
      "title": "Rendered fare",
      "type": "object",
      "additionalProerties": false,
      "properties": {
        "far": {
          "type": "object",
          "properties": {
            "amt": {
              "type": "number"
            },
            "vat": {
              "type": "number"
            },
            "cur": {
              "description": "Currency code in ISO 4217 format",
              "pattern": "[A-Z]{3}",
              "type": "string"
            }
          }
        }
      }
    },
    "ticketId": {
      "title": "Ticket identifier",
      "type": "object",
      "additionalProperties": false,
      "properties": {
        "tid": {
          "type": "string"
        }
      }
    },
    "timeOfIssue": {
      "title": "Time of issue",
      "description": "Time in ISO 8601:2004 format",
      "type": "object",
      "additionalProperties": false,
      "properties": {
        "toi": {
          "type": "string"
        }
      }
    },
    "travellerId": {
      "title": "traveller identifier",
      "type": "object",
      "additionalProperties": false,
      "properties": {
        "travellerId": {
          "type": "string"
        }
      }
    },
    "travellersPerCategory": {
      "title": "travellers per category",
      "type": "object",
      "additionalProperties": false,
      "properties": {
        "tpc": {
          "type": "array",
          "items": {
            "type": "object",
            "properties": {
              "cat": {
                "title": "traveller category",
                "type": "string"
              },
              "cls": {
                "title": "Class of service",
                 "type": "string"
              },
              "tra": {
                "title": "Number of travellers",
                "type": "number"
              },
              "trs": {
                "type": "array",
                "items": {
                  "title": "traveller identifiers",
                  "type": "string"
                }
              },
              "sts": {
                "type": "array",
                "items": {
                  "title": "Seating reservation",
                  "type": "string"
                }
              }
            }
          }
        }
      }
    }
  }
}
